{
  "count": 4,
  "next": "https://metron.cloud/api/arc/?page=2",
  "previous": null,
  "results": [
    {
      "id": 659,
      "name": "'Til Death Do Us...",
      "modified": "2022-01-16T10:12:00.426525-05:00"
    },
    {
      "id": 931,
      "name": "(She) Drunk History",
      "modified": "2023-02-15T11:47:59.483664-05:00"
    }
  ]
}